…
Use `gadmfuzz::find_best_match()` to find out:

``` r
best_matches <- gadmfuzz::find_best_match(region_names = egy_governorates,
                                          gadm_country_sf = gadm36_EGY_1_sf)
```

``` r
best_matches
#> # A tibble: 29 x 4
#>    regional_stats gadm        dist id_region
#>    <chr>          <chr>      <dbl> <chr>    
#>  1 Dakahlia       Dakahlia   0     EGY.1_1  
#>  2 Behera         Behera     0     EGY.3_1  
#>  3 Fayoum         Fayoum     0     EGY.4_1  
#>  4 Gharbia        Gharbia    0     EGY.5_1  
#>  5 Noubaria       Garbia     0.281 EGY.5_1  
#>  6 Alexandria     Alexandria 0     EGY.6_1  
#>  7 Ismailia       Ismailia   0     EGY.7_1  
#>  8 Giza           Giza       0     EGY.8_1  
#>  9 Menoufia       Menoufia   0     EGY.9_1  
#> 10 Menia          Menia      0     EGY.10_1 
#> # … with 19 more rows
```
